<svg width="64" height="64" viewBox="0 0 64 64" fill="none" xmlns="http://www.w3.org/2000/svg">
<path d="M40.6342 16.1738H23.3147V46.8493H40.6342V16.1738Z" fill="#FF5A00"/>
<path d="M24.4676 31.5116C24.4676 25.2793 27.4396 19.7478 32 16.1738C28.6437 13.5723 24.4099 12 19.7918 12C8.85188 12 0 20.7265 0 31.5116C0 42.2967 8.85188 51.0232 19.7918 51.0232C24.4099 51.0232 28.6437 49.4509 32 46.8494C27.4331 43.3259 24.4676 37.7439 24.4676 31.5116Z" fill="#EB001B"/>
<path d="M64 31.5116C64 42.2967 55.1481 51.0232 44.2082 51.0232C39.5901 51.0232 35.3563 49.4509 32 46.8494C36.6181 43.2691 39.5324 37.7439 39.5324 31.5116C39.5324 25.2793 36.5604 19.7478 32 16.1738C35.3499 13.5723 39.5837 12 44.2018 12C55.1481 12 64 20.7834 64 31.5116Z" fill="#F79E1B"/>
</svg>
