<svg width="47" height="62" viewBox="0 0 47 62" fill="none" xmlns="http://www.w3.org/2000/svg">
<circle cx="24.1602" cy="8.29492" r="6.375" stroke="#4FB14A" stroke-width="2" stroke-linecap="round" stroke-linejoin="round"/>
<path d="M31.4997 56.875V44.7369C31.4997 43.6185 31.087 42.5394 30.3407 41.7064L24.5 35.1875C28.1875 29.875 30.0498 14.1375 20.25 15.9375C11.0576 17.6259 7.01216 29.07 6.54598 34.9184C6.49137 35.6035 6.80118 36.2569 7.32409 36.7029C8.09943 37.3642 9.21288 37.4498 10.0801 36.9146L10.2883 36.7862C11.0803 36.2975 11.5518 35.4348 11.6152 34.5063C11.8518 31.0393 13.0186 25.2438 17.6872 23.6875C16.1372 26.4875 15.958 33.8959 16.0622 37.25L25.4997 46V56.875C25.4997 58.5318 26.8429 59.875 28.4997 59.875C30.1566 59.875 31.4997 58.5318 31.4997 56.875Z" stroke="#4FB14A" stroke-width="2" stroke-linecap="round" stroke-linejoin="round"/>
<path d="M26.875 27L36.1203 34.735C37.3122 35.7321 39.0874 35.5715 40.081 34.3765V34.3765C41.0723 33.1842 40.9094 31.4139 39.717 30.4225L27.7557 20.4777" stroke="#4FB14A" stroke-width="2" stroke-linecap="round" stroke-linejoin="round"/>
<path d="M16.9519 38.3573L10.5185 55.6013C9.91535 57.2179 10.7568 59.0146 12.3847 59.5864V59.5864C13.9575 60.1388 15.6844 59.3405 16.2826 57.7845L22.1254 42.5863" stroke="#4FB14A" stroke-width="2" stroke-linecap="round" stroke-linejoin="round"/>
<path d="M1.875 61H45.125" stroke="#4FB14A" stroke-width="2" stroke-linecap="round" stroke-linejoin="round"/>
</svg>
